<?xml version="1.0" encoding="UTF-8"?>
<!DOCTYPE svg PUBLIC "-//W3C//DTD SVG 1.1//EN" "http://www.w3.org/Graphics/SVG/1.1/DTD/svg11.dtd">
<svg version="1.1" xmlns="http://www.w3.org/2000/svg" xmlns:xlink="http://www.w3.org/1999/xlink" x="0" y="0" width="600" height="400" viewBox="0, 0, 600, 400">
  <g id="Background">
    <rect x="0" y="0" width="600" height="400" fill="#000000" fill-opacity="0"/>
  </g>
  <g id="Layer_1">
    <g>
      <g>
        <path d="M40.5,53.767 L64.5,53.767 L64.5,77.767 L40.5,77.767 L40.5,53.767 z" fill="#FFFFFF"/>
        <path d="M40.5,53.767 L64.5,53.767 L64.5,77.767 L40.5,77.767 L40.5,53.767 z" fill-opacity="0" stroke="#515151" stroke-width="3"/>
      </g>
      <g>
        <path d="M40.5,77.767 L64.5,77.767 L64.5,101.767 L40.5,101.767 L40.5,77.767 z" fill="#FFFFFF"/>
        <path d="M40.5,77.767 L64.5,77.767 L64.5,101.767 L40.5,101.767 L40.5,77.767 z" fill-opacity="0" stroke="#515151" stroke-width="3"/>
      </g>
      <g>
        <path d="M40.5,101.767 L64.5,101.767 L64.5,125.767 L40.5,125.767 L40.5,101.767 z" fill="#FFFFFF"/>
        <path d="M40.5,101.767 L64.5,101.767 L64.5,125.767 L40.5,125.767 L40.5,101.767 z" fill-opacity="0" stroke="#515151" stroke-width="3"/>
      </g>
      <g>
        <path d="M40.5,125.767 L64.5,125.767 L64.5,149.767 L40.5,149.767 L40.5,125.767 z" fill="#93FA67"/>
        <path d="M40.5,125.767 L64.5,125.767 L64.5,149.767 L40.5,149.767 L40.5,125.767 z" fill-opacity="0" stroke="#515151" stroke-width="3"/>
      </g>
      <g>
        <path d="M40.5,149.767 L64.5,149.767 L64.5,173.767 L40.5,173.767 L40.5,149.767 z" fill="#FFFFFF"/>
        <path d="M40.5,149.767 L64.5,149.767 L64.5,173.767 L40.5,173.767 L40.5,149.767 z" fill-opacity="0" stroke="#515151" stroke-width="3"/>
      </g>
      <g>
        <path d="M40.5,173.767 L64.5,173.767 L64.5,197.767 L40.5,197.767 L40.5,173.767 z" fill="#FFFFFF"/>
        <path d="M40.5,173.767 L64.5,173.767 L64.5,197.767 L40.5,197.767 L40.5,173.767 z" fill-opacity="0" stroke="#515151" stroke-width="3"/>
      </g>
      <g>
        <path d="M40.5,197.767 L64.5,197.767 L64.5,221.767 L40.5,221.767 L40.5,197.767 z" fill="#FF6E67"/>
        <path d="M40.5,197.767 L64.5,197.767 L64.5,221.767 L40.5,221.767 L40.5,197.767 z" fill-opacity="0" stroke="#515151" stroke-width="3"/>
      </g>
      <g>
        <path d="M40.5,221.767 L64.5,221.767 L64.5,245.767 L40.5,245.767 L40.5,221.767 z" fill="#FFFFFF"/>
        <path d="M40.5,221.767 L64.5,221.767 L64.5,245.767 L40.5,245.767 L40.5,221.767 z" fill-opacity="0" stroke="#515151" stroke-width="3"/>
      </g>
      <g>
        <path d="M40.5,245.767 L64.5,245.767 L64.5,269.767 L40.5,269.767 L40.5,245.767 z" fill="#FFFFFF"/>
        <path d="M40.5,245.767 L64.5,245.767 L64.5,269.767 L40.5,269.767 L40.5,245.767 z" fill-opacity="0" stroke="#515151" stroke-width="3"/>
      </g>
      <g>
        <path d="M40.5,269.767 L64.5,269.767 L64.5,293.767 L40.5,293.767 L40.5,269.767 z" fill="#64C4FF"/>
        <path d="M40.5,269.767 L64.5,269.767 L64.5,293.767 L40.5,293.767 L40.5,269.767 z" fill-opacity="0" stroke="#515151" stroke-width="3"/>
      </g>
      <g>
        <path d="M40.5,293.767 L64.5,293.767 L64.5,317.767 L40.5,317.767 L40.5,293.767 z" fill="#FFFFFF"/>
        <path d="M40.5,293.767 L64.5,293.767 L64.5,317.767 L40.5,317.767 L40.5,293.767 z" fill-opacity="0" stroke="#515151" stroke-width="3"/>
      </g>
      <g>
        <path d="M40.5,317.767 L64.5,317.767 L64.5,341.767 L40.5,341.767 L40.5,317.767 z" fill="#FFFFFF"/>
        <path d="M40.5,317.767 L64.5,317.767 L64.5,341.767 L40.5,341.767 L40.5,317.767 z" fill-opacity="0" stroke="#515151" stroke-width="3"/>
      </g>
    </g>
    <g>
      <g>
        <path d="M536.5,125.767 L560.5,125.767 L560.5,149.767 L536.5,149.767 L536.5,125.767 z" fill="#20FA5B"/>
        <path d="M536.5,125.767 L560.5,125.767 L560.5,149.767 L536.5,149.767 L536.5,125.767 z" fill-opacity="0" stroke="#515151" stroke-width="3"/>
      </g>
      <g>
        <path d="M536.5,149.767 L560.5,149.767 L560.5,173.767 L536.5,173.767 L536.5,149.767 z" fill="#FFE967"/>
        <path d="M536.5,149.767 L560.5,149.767 L560.5,173.767 L536.5,173.767 L536.5,149.767 z" fill-opacity="0" stroke="#515151" stroke-width="3"/>
      </g>
      <g>
        <path d="M536.5,173.767 L560.5,173.767 L560.5,197.767 L536.5,197.767 L536.5,173.767 z" fill="#FF4437"/>
        <path d="M536.5,173.767 L560.5,173.767 L560.5,197.767 L536.5,197.767 L536.5,173.767 z" fill-opacity="0" stroke="#515151" stroke-width="3"/>
      </g>
      <g>
        <path d="M536.5,197.767 L560.5,197.767 L560.5,221.767 L536.5,221.767 L536.5,197.767 z" fill="#CCFCB8"/>
        <path d="M536.5,197.767 L560.5,197.767 L560.5,221.767 L536.5,221.767 L536.5,197.767 z" fill-opacity="0" stroke="#515151" stroke-width="3"/>
      </g>
      <g>
        <path d="M536.5,221.767 L560.5,221.767 L560.5,245.767 L536.5,245.767 L536.5,221.767 z" fill="#FF97C3"/>
        <path d="M536.5,221.767 L560.5,221.767 L560.5,245.767 L536.5,245.767 L536.5,221.767 z" fill-opacity="0" stroke="#515151" stroke-width="3"/>
      </g>
      <g>
        <path d="M536.5,245.767 L560.5,245.767 L560.5,269.767 L536.5,269.767 L536.5,245.767 z" fill="#6887FF"/>
        <path d="M536.5,245.767 L560.5,245.767 L560.5,269.767 L536.5,269.767 L536.5,245.767 z" fill-opacity="0" stroke="#515151" stroke-width="3"/>
      </g>
    </g>
    <g>
      <g>
        <path d="M255.5,30.767 L277.5,30.767 L277.5,51.767 L255.5,51.767 L255.5,30.767 z" fill="#B0FB92"/>
        <path d="M255.5,30.767 L277.5,30.767 L277.5,51.767 L255.5,51.767 L255.5,30.767 z" fill-opacity="0" stroke="#515151" stroke-width="3"/>
      </g>
      <g>
        <path d="M277.5,30.767 L299.5,30.767 L299.5,51.767 L277.5,51.767 L277.5,30.767 z" fill="#FFC392"/>
        <path d="M277.5,30.767 L299.5,30.767 L299.5,51.767 L277.5,51.767 L277.5,30.767 z" fill-opacity="0" stroke="#515151" stroke-width="3"/>
      </g>
      <g>
        <path d="M299.5,30.767 L321.5,30.767 L321.5,51.767 L299.5,51.767 L299.5,30.767 z" fill="#FFF479"/>
        <path d="M299.5,30.767 L321.5,30.767 L321.5,51.767 L299.5,51.767 L299.5,30.767 z" fill-opacity="0" stroke="#515151" stroke-width="3"/>
      </g>
      <g>
        <path d="M321.5,30.767 L343.5,30.767 L343.5,51.767 L321.5,51.767 L321.5,30.767 z" fill="#B0FB92"/>
        <path d="M321.5,30.767 L343.5,30.767 L343.5,51.767 L321.5,51.767 L321.5,30.767 z" fill-opacity="0" stroke="#515151" stroke-width="3"/>
      </g>
      <g>
        <path d="M343.5,30.767 L365.5,30.767 L365.5,51.767 L343.5,51.767 L343.5,30.767 z" fill="#64C4FF"/>
        <path d="M343.5,30.767 L365.5,30.767 L365.5,51.767 L343.5,51.767 L343.5,30.767 z" fill-opacity="0" stroke="#515151" stroke-width="3"/>
      </g>
      <g>
        <path d="M365.5,30.767 L387.5,30.767 L387.5,51.767 L365.5,51.767 L365.5,30.767 z" fill="#9973FF"/>
        <path d="M365.5,30.767 L387.5,30.767 L387.5,51.767 L365.5,51.767 L365.5,30.767 z" fill-opacity="0" stroke="#515151" stroke-width="3"/>
      </g>
      <g>
        <path d="M387.5,30.767 L409.5,30.767 L409.5,51.767 L387.5,51.767 L387.5,30.767 z" fill="#FFF479"/>
        <path d="M387.5,30.767 L409.5,30.767 L409.5,51.767 L387.5,51.767 L387.5,30.767 z" fill-opacity="0" stroke="#515151" stroke-width="3"/>
      </g>
      <g>
        <path d="M409.5,30.767 L431.5,30.767 L431.5,51.767 L409.5,51.767 L409.5,30.767 z" fill="#FF6E67"/>
        <path d="M409.5,30.767 L431.5,30.767 L431.5,51.767 L409.5,51.767 L409.5,30.767 z" fill-opacity="0" stroke="#515151" stroke-width="3"/>
      </g>
      <g>
        <path d="M233.5,30.767 L255.5,30.767 L255.5,51.767 L233.5,51.767 L233.5,30.767 z" fill="#B0FB92"/>
        <path d="M233.5,30.767 L255.5,30.767 L255.5,51.767 L233.5,51.767 L233.5,30.767 z" fill-opacity="0" stroke="#515151" stroke-width="3"/>
      </g>
      <g>
        <path d="M211.5,30.767 L233.5,30.767 L233.5,51.767 L211.5,51.767 L211.5,30.767 z" fill="#FFC392"/>
        <path d="M211.5,30.767 L233.5,30.767 L233.5,51.767 L211.5,51.767 L211.5,30.767 z" fill-opacity="0" stroke="#515151" stroke-width="3"/>
      </g>
      <g>
        <path d="M189.5,30.767 L211.5,30.767 L211.5,51.767 L189.5,51.767 L189.5,30.767 z" fill="#FF6E67"/>
        <path d="M189.5,30.767 L211.5,30.767 L211.5,51.767 L189.5,51.767 L189.5,30.767 z" fill-opacity="0" stroke="#515151" stroke-width="3"/>
      </g>
      <g>
        <path d="M167.5,30.767 L189.5,30.767 L189.5,51.767 L167.5,51.767 L167.5,30.767 z" fill="#93FA67"/>
        <path d="M167.5,30.767 L189.5,30.767 L189.5,51.767 L167.5,51.767 L167.5,30.767 z" fill-opacity="0" stroke="#515151" stroke-width="3"/>
      </g>
      <g>
        <path d="M255.5,51.767 L277.5,51.767 L277.5,72.767 L255.5,72.767 L255.5,51.767 z" fill="#FFC392"/>
        <path d="M255.5,51.767 L277.5,51.767 L277.5,72.767 L255.5,72.767 L255.5,51.767 z" fill-opacity="0" stroke="#515151" stroke-width="3"/>
      </g>
      <g>
        <path d="M277.5,51.767 L299.5,51.767 L299.5,72.767 L277.5,72.767 L277.5,51.767 z" fill="#B0FB92"/>
        <path d="M277.5,51.767 L299.5,51.767 L299.5,72.767 L277.5,72.767 L277.5,51.767 z" fill-opacity="0" stroke="#515151" stroke-width="3"/>
      </g>
      <g>
        <path d="M299.5,51.767 L321.5,51.767 L321.5,72.767 L299.5,72.767 L299.5,51.767 z" fill="#64C4FF"/>
        <path d="M299.5,51.767 L321.5,51.767 L321.5,72.767 L299.5,72.767 L299.5,51.767 z" fill-opacity="0" stroke="#515151" stroke-width="3"/>
      </g>
      <g>
        <path d="M321.5,51.767 L343.5,51.767 L343.5,72.767 L321.5,72.767 L321.5,51.767 z" fill="#FF75EC"/>
        <path d="M321.5,51.767 L343.5,51.767 L343.5,72.767 L321.5,72.767 L321.5,51.767 z" fill-opacity="0" stroke="#515151" stroke-width="3"/>
      </g>
      <g>
        <path d="M343.5,51.767 L365.5,51.767 L365.5,72.767 L343.5,72.767 L343.5,51.767 z" fill="#FF75EC"/>
        <path d="M343.5,51.767 L365.5,51.767 L365.5,72.767 L343.5,72.767 L343.5,51.767 z" fill-opacity="0" stroke="#515151" stroke-width="3"/>
      </g>
      <g>
        <path d="M365.5,51.767 L387.5,51.767 L387.5,72.767 L365.5,72.767 L365.5,51.767 z" fill="#FFF479"/>
        <path d="M365.5,51.767 L387.5,51.767 L387.5,72.767 L365.5,72.767 L365.5,51.767 z" fill-opacity="0" stroke="#515151" stroke-width="3"/>
      </g>
      <g>
        <path d="M387.5,51.767 L409.5,51.767 L409.5,72.767 L387.5,72.767 L387.5,51.767 z" fill="#FF6E67"/>
        <path d="M387.5,51.767 L409.5,51.767 L409.5,72.767 L387.5,72.767 L387.5,51.767 z" fill-opacity="0" stroke="#515151" stroke-width="3"/>
      </g>
      <g>
        <path d="M409.5,51.767 L431.5,51.767 L431.5,72.767 L409.5,72.767 L409.5,51.767 z" fill="#B0FB92"/>
        <path d="M409.5,51.767 L431.5,51.767 L431.5,72.767 L409.5,72.767 L409.5,51.767 z" fill-opacity="0" stroke="#515151" stroke-width="3"/>
      </g>
      <g>
        <path d="M233.5,51.767 L255.5,51.767 L255.5,72.767 L233.5,72.767 L233.5,51.767 z" fill="#FFC392"/>
        <path d="M233.5,51.767 L255.5,51.767 L255.5,72.767 L233.5,72.767 L233.5,51.767 z" fill-opacity="0" stroke="#515151" stroke-width="3"/>
      </g>
      <g>
        <path d="M211.5,51.767 L233.5,51.767 L233.5,72.767 L211.5,72.767 L211.5,51.767 z" fill="#FF75EC"/>
        <path d="M211.5,51.767 L233.5,51.767 L233.5,72.767 L211.5,72.767 L211.5,51.767 z" fill-opacity="0" stroke="#515151" stroke-width="3"/>
      </g>
      <g>
        <path d="M189.5,51.767 L211.5,51.767 L211.5,72.767 L189.5,72.767 L189.5,51.767 z" fill="#FFC392"/>
        <path d="M189.5,51.767 L211.5,51.767 L211.5,72.767 L189.5,72.767 L189.5,51.767 z" fill-opacity="0" stroke="#515151" stroke-width="3"/>
      </g>
      <g>
        <path d="M167.5,51.767 L189.5,51.767 L189.5,72.767 L167.5,72.767 L167.5,51.767 z" fill="#93FA67"/>
        <path d="M167.5,51.767 L189.5,51.767 L189.5,72.767 L167.5,72.767 L167.5,51.767 z" fill-opacity="0" stroke="#515151" stroke-width="3"/>
      </g>
      <g>
        <path d="M255.5,72.767 L277.5,72.767 L277.5,93.767 L255.5,93.767 L255.5,72.767 z" fill="#FF6E67"/>
        <path d="M255.5,72.767 L277.5,72.767 L277.5,93.767 L255.5,93.767 L255.5,72.767 z" fill-opacity="0" stroke="#515151" stroke-width="3"/>
      </g>
      <g>
        <path d="M277.5,72.767 L299.5,72.767 L299.5,93.767 L277.5,93.767 L277.5,72.767 z" fill="#FF6E67"/>
        <path d="M277.5,72.767 L299.5,72.767 L299.5,93.767 L277.5,93.767 L277.5,72.767 z" fill-opacity="0" stroke="#515151" stroke-width="3"/>
      </g>
      <g>
        <path d="M299.5,72.767 L321.5,72.767 L321.5,93.767 L299.5,93.767 L299.5,72.767 z" fill="#B0FB92"/>
        <path d="M299.5,72.767 L321.5,72.767 L321.5,93.767 L299.5,93.767 L299.5,72.767 z" fill-opacity="0" stroke="#515151" stroke-width="3"/>
      </g>
      <g>
        <path d="M321.5,72.767 L343.5,72.767 L343.5,93.767 L321.5,93.767 L321.5,72.767 z" fill="#FFC392"/>
        <path d="M321.5,72.767 L343.5,72.767 L343.5,93.767 L321.5,93.767 L321.5,72.767 z" fill-opacity="0" stroke="#515151" stroke-width="3"/>
      </g>
      <g>
        <path d="M343.5,72.767 L365.5,72.767 L365.5,93.767 L343.5,93.767 L343.5,72.767 z" fill="#FF6E67"/>
        <path d="M343.5,72.767 L365.5,72.767 L365.5,93.767 L343.5,93.767 L343.5,72.767 z" fill-opacity="0" stroke="#515151" stroke-width="3"/>
      </g>
      <g>
        <path d="M365.5,72.767 L387.5,72.767 L387.5,93.767 L365.5,93.767 L365.5,72.767 z" fill="#FF75EC"/>
        <path d="M365.5,72.767 L387.5,72.767 L387.5,93.767 L365.5,93.767 L365.5,72.767 z" fill-opacity="0" stroke="#515151" stroke-width="3"/>
      </g>
      <g>
        <path d="M387.5,72.767 L409.5,72.767 L409.5,93.767 L387.5,93.767 L387.5,72.767 z" fill="#B0FB92"/>
        <path d="M387.5,72.767 L409.5,72.767 L409.5,93.767 L387.5,93.767 L387.5,72.767 z" fill-opacity="0" stroke="#515151" stroke-width="3"/>
      </g>
      <g>
        <path d="M409.5,72.767 L431.5,72.767 L431.5,93.767 L409.5,93.767 L409.5,72.767 z" fill="#B0FB92"/>
        <path d="M409.5,72.767 L431.5,72.767 L431.5,93.767 L409.5,93.767 L409.5,72.767 z" fill-opacity="0" stroke="#515151" stroke-width="3"/>
      </g>
      <g>
        <path d="M233.5,72.767 L255.5,72.767 L255.5,93.767 L233.5,93.767 L233.5,72.767 z" fill="#FFC392"/>
        <path d="M233.5,72.767 L255.5,72.767 L255.5,93.767 L233.5,93.767 L233.5,72.767 z" fill-opacity="0" stroke="#515151" stroke-width="3"/>
      </g>
      <g>
        <path d="M211.5,72.767 L233.5,72.767 L233.5,93.767 L211.5,93.767 L211.5,72.767 z" fill="#64C4FF"/>
        <path d="M211.5,72.767 L233.5,72.767 L233.5,93.767 L211.5,93.767 L211.5,72.767 z" fill-opacity="0" stroke="#515151" stroke-width="3"/>
      </g>
      <g>
        <path d="M189.5,72.767 L211.5,72.767 L211.5,93.767 L189.5,93.767 L189.5,72.767 z" fill="#9973FF"/>
        <path d="M189.5,72.767 L211.5,72.767 L211.5,93.767 L189.5,93.767 L189.5,72.767 z" fill-opacity="0" stroke="#515151" stroke-width="3"/>
      </g>
      <g>
        <path d="M167.5,72.767 L189.5,72.767 L189.5,93.767 L167.5,93.767 L167.5,72.767 z" fill="#B0FB92"/>
        <path d="M167.5,72.767 L189.5,72.767 L189.5,93.767 L167.5,93.767 L167.5,72.767 z" fill-opacity="0" stroke="#515151" stroke-width="3"/>
      </g>
      <g>
        <path d="M255.5,93.767 L277.5,93.767 L277.5,114.767 L255.5,114.767 L255.5,93.767 z" fill="#9973FF"/>
        <path d="M255.5,93.767 L277.5,93.767 L277.5,114.767 L255.5,114.767 L255.5,93.767 z" fill-opacity="0" stroke="#515151" stroke-width="3"/>
      </g>
      <g>
        <path d="M277.5,93.767 L299.5,93.767 L299.5,114.767 L277.5,114.767 L277.5,93.767 z" fill="#FF6E67"/>
        <path d="M277.5,93.767 L299.5,93.767 L299.5,114.767 L277.5,114.767 L277.5,93.767 z" fill-opacity="0" stroke="#515151" stroke-width="3"/>
      </g>
      <g>
        <path d="M299.5,93.767 L321.5,93.767 L321.5,114.767 L299.5,114.767 L299.5,93.767 z" fill="#9973FF"/>
        <path d="M299.5,93.767 L321.5,93.767 L321.5,114.767 L299.5,114.767 L299.5,93.767 z" fill-opacity="0" stroke="#515151" stroke-width="3"/>
      </g>
      <g>
        <path d="M321.5,93.767 L343.5,93.767 L343.5,114.767 L321.5,114.767 L321.5,93.767 z" fill="#FFC392"/>
        <path d="M321.5,93.767 L343.5,93.767 L343.5,114.767 L321.5,114.767 L321.5,93.767 z" fill-opacity="0" stroke="#515151" stroke-width="3"/>
      </g>
      <g>
        <path d="M343.5,93.767 L365.5,93.767 L365.5,114.767 L343.5,114.767 L343.5,93.767 z" fill="#9973FF"/>
        <path d="M343.5,93.767 L365.5,93.767 L365.5,114.767 L343.5,114.767 L343.5,93.767 z" fill-opacity="0" stroke="#515151" stroke-width="3"/>
      </g>
      <g>
        <path d="M365.5,93.767 L387.5,93.767 L387.5,114.767 L365.5,114.767 L365.5,93.767 z" fill="#4C5F97"/>
        <path d="M365.5,93.767 L387.5,93.767 L387.5,114.767 L365.5,114.767 L365.5,93.767 z" fill-opacity="0" stroke="#515151" stroke-width="3"/>
      </g>
      <g>
        <path d="M387.5,93.767 L409.5,93.767 L409.5,114.767 L387.5,114.767 L387.5,93.767 z" fill="#64C4FF"/>
        <path d="M387.5,93.767 L409.5,93.767 L409.5,114.767 L387.5,114.767 L387.5,93.767 z" fill-opacity="0" stroke="#515151" stroke-width="3"/>
      </g>
      <g>
        <path d="M409.5,93.767 L431.5,93.767 L431.5,114.767 L409.5,114.767 L409.5,93.767 z" fill="#64C4FF"/>
        <path d="M409.5,93.767 L431.5,93.767 L431.5,114.767 L409.5,114.767 L409.5,93.767 z" fill-opacity="0" stroke="#515151" stroke-width="3"/>
      </g>
      <g>
        <path d="M233.5,93.767 L255.5,93.767 L255.5,114.767 L233.5,114.767 L233.5,93.767 z" fill="#FF6E67"/>
        <path d="M233.5,93.767 L255.5,93.767 L255.5,114.767 L233.5,114.767 L233.5,93.767 z" fill-opacity="0" stroke="#515151" stroke-width="3"/>
      </g>
      <g>
        <path d="M211.5,93.767 L233.5,93.767 L233.5,114.767 L211.5,114.767 L211.5,93.767 z" fill="#FFC392"/>
        <path d="M211.5,93.767 L233.5,93.767 L233.5,114.767 L211.5,114.767 L211.5,93.767 z" fill-opacity="0" stroke="#515151" stroke-width="3"/>
      </g>
      <g>
        <path d="M189.5,93.767 L211.5,93.767 L211.5,114.767 L189.5,114.767 L189.5,93.767 z" fill="#64C4FF"/>
        <path d="M189.5,93.767 L211.5,93.767 L211.5,114.767 L189.5,114.767 L189.5,93.767 z" fill-opacity="0" stroke="#515151" stroke-width="3"/>
      </g>
      <g>
        <path d="M167.5,93.767 L189.5,93.767 L189.5,114.767 L167.5,114.767 L167.5,93.767 z" fill="#93FA67"/>
        <path d="M167.5,93.767 L189.5,93.767 L189.5,114.767 L167.5,114.767 L167.5,93.767 z" fill-opacity="0" stroke="#515151" stroke-width="3"/>
      </g>
      <g>
        <path d="M255.5,114.767 L277.5,114.767 L277.5,135.767 L255.5,135.767 L255.5,114.767 z" fill="#FF75EC"/>
        <path d="M255.5,114.767 L277.5,114.767 L277.5,135.767 L255.5,135.767 L255.5,114.767 z" fill-opacity="0" stroke="#515151" stroke-width="3"/>
      </g>
      <g>
        <path d="M277.5,114.767 L299.5,114.767 L299.5,135.767 L277.5,135.767 L277.5,114.767 z" fill="#FF75EC"/>
        <path d="M277.5,114.767 L299.5,114.767 L299.5,135.767 L277.5,135.767 L277.5,114.767 z" fill-opacity="0" stroke="#515151" stroke-width="3"/>
      </g>
      <g>
        <path d="M299.5,114.767 L321.5,114.767 L321.5,135.767 L299.5,135.767 L299.5,114.767 z" fill="#4C5F97"/>
        <path d="M299.5,114.767 L321.5,114.767 L321.5,135.767 L299.5,135.767 L299.5,114.767 z" fill-opacity="0" stroke="#515151" stroke-width="3"/>
      </g>
      <g>
        <path d="M321.5,114.767 L343.5,114.767 L343.5,135.767 L321.5,135.767 L321.5,114.767 z" fill="#FF6E67"/>
        <path d="M321.5,114.767 L343.5,114.767 L343.5,135.767 L321.5,135.767 L321.5,114.767 z" fill-opacity="0" stroke="#515151" stroke-width="3"/>
      </g>
      <g>
        <path d="M343.5,114.767 L365.5,114.767 L365.5,135.767 L343.5,135.767 L343.5,114.767 z" fill="#FF75EC"/>
        <path d="M343.5,114.767 L365.5,114.767 L365.5,135.767 L343.5,135.767 L343.5,114.767 z" fill-opacity="0" stroke="#515151" stroke-width="3"/>
      </g>
      <g>
        <path d="M365.5,114.767 L387.5,114.767 L387.5,135.767 L365.5,135.767 L365.5,114.767 z" fill="#9973FF"/>
        <path d="M365.5,114.767 L387.5,114.767 L387.5,135.767 L365.5,135.767 L365.5,114.767 z" fill-opacity="0" stroke="#515151" stroke-width="3"/>
      </g>
      <g>
        <path d="M387.5,114.767 L409.5,114.767 L409.5,135.767 L387.5,135.767 L387.5,114.767 z" fill="#4C5F97"/>
        <path d="M387.5,114.767 L409.5,114.767 L409.5,135.767 L387.5,135.767 L387.5,114.767 z" fill-opacity="0" stroke="#515151" stroke-width="3"/>
      </g>
      <g>
        <path d="M409.5,114.767 L431.5,114.767 L431.5,135.767 L409.5,135.767 L409.5,114.767 z" fill="#64C4FF"/>
        <path d="M409.5,114.767 L431.5,114.767 L431.5,135.767 L409.5,135.767 L409.5,114.767 z" fill-opacity="0" stroke="#515151" stroke-width="3"/>
      </g>
      <g>
        <path d="M233.5,114.767 L255.5,114.767 L255.5,135.767 L233.5,135.767 L233.5,114.767 z" fill="#4C5F97"/>
        <path d="M233.5,114.767 L255.5,114.767 L255.5,135.767 L233.5,135.767 L233.5,114.767 z" fill-opacity="0" stroke="#515151" stroke-width="3"/>
      </g>
      <g>
        <path d="M211.5,114.767 L233.5,114.767 L233.5,135.767 L211.5,135.767 L211.5,114.767 z" fill="#4C5F97"/>
        <path d="M211.5,114.767 L233.5,114.767 L233.5,135.767 L211.5,135.767 L211.5,114.767 z" fill-opacity="0" stroke="#515151" stroke-width="3"/>
      </g>
      <g>
        <path d="M189.5,114.767 L211.5,114.767 L211.5,135.767 L189.5,135.767 L189.5,114.767 z" fill="#9973FF"/>
        <path d="M189.5,114.767 L211.5,114.767 L211.5,135.767 L189.5,135.767 L189.5,114.767 z" fill-opacity="0" stroke="#515151" stroke-width="3"/>
      </g>
      <g>
        <path d="M167.5,114.767 L189.5,114.767 L189.5,135.767 L167.5,135.767 L167.5,114.767 z" fill="#93FA67"/>
        <path d="M167.5,114.767 L189.5,114.767 L189.5,135.767 L167.5,135.767 L167.5,114.767 z" fill-opacity="0" stroke="#515151" stroke-width="3"/>
      </g>
      <g>
        <path d="M255.5,135.767 L277.5,135.767 L277.5,156.767 L255.5,156.767 L255.5,135.767 z" fill="#4C5F97"/>
        <path d="M255.5,135.767 L277.5,135.767 L277.5,156.767 L255.5,156.767 L255.5,135.767 z" fill-opacity="0" stroke="#515151" stroke-width="3"/>
      </g>
      <g>
        <path d="M277.5,135.767 L299.5,135.767 L299.5,156.767 L277.5,156.767 L277.5,135.767 z" fill="#64C4FF"/>
        <path d="M277.5,135.767 L299.5,135.767 L299.5,156.767 L277.5,156.767 L277.5,135.767 z" fill-opacity="0" stroke="#515151" stroke-width="3"/>
      </g>
      <g>
        <path d="M299.5,135.767 L321.5,135.767 L321.5,156.767 L299.5,156.767 L299.5,135.767 z" fill="#4C5F97"/>
        <path d="M299.5,135.767 L321.5,135.767 L321.5,156.767 L299.5,156.767 L299.5,135.767 z" fill-opacity="0" stroke="#515151" stroke-width="3"/>
      </g>
      <g>
        <path d="M321.5,135.767 L343.5,135.767 L343.5,156.767 L321.5,156.767 L321.5,135.767 z" fill="#FFF479"/>
        <path d="M321.5,135.767 L343.5,135.767 L343.5,156.767 L321.5,156.767 L321.5,135.767 z" fill-opacity="0" stroke="#515151" stroke-width="3"/>
      </g>
      <g>
        <path d="M343.5,135.767 L365.5,135.767 L365.5,156.767 L343.5,156.767 L343.5,135.767 z" fill="#4C5F97"/>
        <path d="M343.5,135.767 L365.5,135.767 L365.5,156.767 L343.5,156.767 L343.5,135.767 z" fill-opacity="0" stroke="#515151" stroke-width="3"/>
      </g>
      <g>
        <path d="M365.5,135.767 L387.5,135.767 L387.5,156.767 L365.5,156.767 L365.5,135.767 z" fill="#9973FF"/>
        <path d="M365.5,135.767 L387.5,135.767 L387.5,156.767 L365.5,156.767 L365.5,135.767 z" fill-opacity="0" stroke="#515151" stroke-width="3"/>
      </g>
      <g>
        <path d="M387.5,135.767 L409.5,135.767 L409.5,156.767 L387.5,156.767 L387.5,135.767 z" fill="#64C4FF"/>
        <path d="M387.5,135.767 L409.5,135.767 L409.5,156.767 L387.5,156.767 L387.5,135.767 z" fill-opacity="0" stroke="#515151" stroke-width="3"/>
      </g>
      <g>
        <path d="M409.5,135.767 L431.5,135.767 L431.5,156.767 L409.5,156.767 L409.5,135.767 z" fill="#FFF479"/>
        <path d="M409.5,135.767 L431.5,135.767 L431.5,156.767 L409.5,156.767 L409.5,135.767 z" fill-opacity="0" stroke="#515151" stroke-width="3"/>
      </g>
      <g>
        <path d="M233.5,135.767 L255.5,135.767 L255.5,156.767 L233.5,156.767 L233.5,135.767 z" fill="#9973FF"/>
        <path d="M233.5,135.767 L255.5,135.767 L255.5,156.767 L233.5,156.767 L233.5,135.767 z" fill-opacity="0" stroke="#515151" stroke-width="3"/>
      </g>
      <g>
        <path d="M211.5,135.767 L233.5,135.767 L233.5,156.767 L211.5,156.767 L211.5,135.767 z" fill="#FFF479"/>
        <path d="M211.5,135.767 L233.5,135.767 L233.5,156.767 L211.5,156.767 L211.5,135.767 z" fill-opacity="0" stroke="#515151" stroke-width="3"/>
      </g>
      <g>
        <path d="M189.5,135.767 L211.5,135.767 L211.5,156.767 L189.5,156.767 L189.5,135.767 z" fill="#9973FF"/>
        <path d="M189.5,135.767 L211.5,135.767 L211.5,156.767 L189.5,156.767 L189.5,135.767 z" fill-opacity="0" stroke="#515151" stroke-width="3"/>
      </g>
      <g>
        <path d="M167.5,135.767 L189.5,135.767 L189.5,156.767 L167.5,156.767 L167.5,135.767 z" fill="#93FA67"/>
        <path d="M167.5,135.767 L189.5,135.767 L189.5,156.767 L167.5,156.767 L167.5,135.767 z" fill-opacity="0" stroke="#515151" stroke-width="3"/>
      </g>
    </g>
    <g>
      <path d="M229.697,189.886 C218.459,189.886 209.349,184.468 209.349,177.785 C209.349,171.101 218.459,165.683 229.697,165.683 C240.935,165.683 250.046,171.101 250.046,177.785 C250.046,184.468 240.935,189.886 229.697,189.886 z" fill-opacity="0" stroke="#000000" stroke-width="4"/>
      <path d="M229.511,192.785 L229.511,162.785" fill-opacity="0" stroke="#000000" stroke-width="4" stroke-linecap="round"/>
    </g>
    <g>
      <g>
        <path d="M292.985,237.506 L313.894,224.233 L355.712,356.96 L334.803,370.233 L292.985,237.506 z" fill="#FFD8B8"/>
        <path d="M292.985,237.506 L313.894,224.233 L355.712,356.96 L334.803,370.233 L292.985,237.506 z" fill-opacity="0" stroke="#000000" stroke-width="1"/>
      </g>
      <g>
        <path d="M279.045,270.688 L244.197,303.869 L279.045,343.688 L319.35,303.869 L279.045,270.688" fill="#B6FCC3" fill-opacity="0.904"/>
        <path d="M279.045,270.688 L244.197,303.869 L279.045,343.688 L319.35,303.869 L279.045,270.688" fill-opacity="0" stroke="#000000" stroke-width="3"/>
      </g>
      <g>
        <path d="M236.196,344.669 L314.925,269.706" fill-opacity="0" stroke="#000000" stroke-width="2" stroke-miterlimit="2"/>
        <path d="M236.196,344.669 L235.452,340.407 L230.982,349.634 L240.417,345.622 z" fill="#000000" fill-opacity="1" stroke="#000000" stroke-width="2" stroke-opacity="1"/>
        <path d="M314.925,269.706 L315.669,273.968 L320.139,264.741 L310.704,268.754 z" fill="#000000" fill-opacity="1" stroke="#000000" stroke-width="2" stroke-opacity="1"/>
      </g>
      <g>
        <path d="M217.549,303.869 L361.451,303.869" fill-opacity="0" stroke="#000000" stroke-width="2" stroke-miterlimit="2"/>
        <path d="M217.549,303.869 L219.949,300.269 L210.349,303.869 L219.949,307.469 z" fill="#000000" fill-opacity="1" stroke="#000000" stroke-width="2" stroke-opacity="1"/>
        <path d="M361.451,303.869 L359.051,307.469 L368.651,303.869 L359.051,300.269 z" fill="#000000" fill-opacity="1" stroke="#000000" stroke-width="2" stroke-opacity="1"/>
      </g>
      <g>
        <path d="M279.045,362.033 L279.045,245.706" fill-opacity="0" stroke="#000000" stroke-width="2" stroke-miterlimit="2"/>
        <path d="M279.045,362.033 L275.445,359.633 L279.045,369.233 L282.645,359.633 z" fill="#000000" fill-opacity="1" stroke="#000000" stroke-width="2" stroke-opacity="1"/>
        <path d="M279.045,245.706 L282.645,248.106 L279.045,238.506 L275.445,248.106 z" fill="#000000" fill-opacity="1" stroke="#000000" stroke-width="2" stroke-opacity="1"/>
      </g>
      <path d="M266.619,317.142 L319.35,303.869" fill-opacity="0" stroke="#000000" stroke-width="3"/>
      <path d="M279.045,270.688 L266.619,317.142" fill-opacity="0" stroke="#000000" stroke-width="3"/>
      <path d="M244.197,303.869 L266.619,317.142" fill-opacity="0" stroke="#000000" stroke-width="3"/>
      <path d="M279.045,343.688 L266.619,317.142" fill-opacity="0" stroke="#000000" stroke-width="3"/>
    </g>
    <g>
      <text transform="matrix(1, 0, 0, 1, 353.6, 252.623)">
        <tspan x="-9.758" y="12.5" font-family="HelveticaNeue-Medium" font-size="34" fill="#000000">L</tspan>
      </text>
      <text transform="matrix(1, 0, 0, 1, 371.6, 267.123)">
        <tspan x="-7.784" y="10.338" font-family="HelveticaNeue-Medium" font-size="28" fill="#000000">1</tspan>
      </text>
    </g>
    <g>
      <path d="M79.5,121.349 C79.5,114.6 105.836,108.962 140.964,107.602" fill-opacity="0" stroke="#000000" stroke-width="4"/>
      <path d="M141.056,112.401 L153.762,107.358 L140.873,102.803 z" fill="#000000" fill-opacity="1" stroke="#000000" stroke-width="4" stroke-opacity="1"/>
    </g>
    <g>
      <path d="M440.46,103.061 C470.294,103.75 496.499,106.682 511.68,110.559" fill-opacity="0" stroke="#000000" stroke-width="4"/>
      <path d="M509.406,114.786 L522.952,116.623 L513.954,106.332 z" fill="#000000" fill-opacity="1" stroke="#000000" stroke-width="4" stroke-opacity="1"/>
    </g>
    <g>
      <path d="M90.187,296.26 C107.261,304.853 143.012,310.767 184.349,310.767" fill-opacity="0" stroke="#000000" stroke-width="4"/>
      <path d="M93.691,292.979 L81.439,286.916 L86.683,299.541 z" fill="#000000" fill-opacity="1" stroke="#000000" stroke-width="4" stroke-opacity="1"/>
    </g>
    <g>
      <path d="M422.31,310.232 C480.767,306.783 525.688,295.928 525.524,284.623" fill-opacity="0" stroke="#000000" stroke-width="4"/>
      <path d="M422.088,305.438 L409.523,310.823 L422.531,315.027 z" fill="#000000" fill-opacity="1" stroke="#000000" stroke-width="4" stroke-opacity="1"/>
    </g>
    <text transform="matrix(1, 0, 0, 1, 103, 211.623)">
      <tspan x="-11.016" y="12.5" font-family="HelveticaNeue-Medium" font-size="34" fill="#000000">X</tspan>
    </text>
    <text transform="matrix(1, 0, 0, 1, 501.024, 211.623)">
      <tspan x="-11.016" y="12.5" font-family="HelveticaNeue-Medium" font-size="34" fill="#000000">Y</tspan>
    </text>
  </g>
</svg>
